<?xml version="1.0" encoding="UTF-8" standalone="no"?>
<!DOCTYPE svg PUBLIC "-//W3C//DTD SVG 1.1//EN"
 "http://www.w3.org/Graphics/SVG/1.1/DTD/svg11.dtd">
<!-- Generated by graphviz version 2.49.3 (0)
 -->
<!-- Title: oneDegreeRelationshipsDiagram Pages: 1 -->
<svg width="413pt" height="285pt"
 viewBox="0.00 0.00 413.00 285.00" xmlns="http://www.w3.org/2000/svg" xmlns:xlink="http://www.w3.org/1999/xlink">
<g id="graph0" class="graph" transform="scale(1 1) rotate(0) translate(4 281)">
<title>oneDegreeRelationshipsDiagram</title>
<polygon fill="#ffffff" stroke="transparent" points="-4,4 -4,-281 409,-281 409,4 -4,4"/>
<text text-anchor="middle" x="73.5" y="-7.2" font-family="Helvetica,sans-Serif" font-size="11.00">Generated by SchemaSpy</text>
<!-- uploads -->
<g id="node1" class="node">
<title>uploads</title>
<g id="a_node1"><a xlink:href="../../tables/uploads.html" xlink:title="uploads" target="_top">
<polygon fill="#ffffff" stroke="transparent" points="164,-75 164,-273 397,-273 397,-75 164,-75"/>
<polygon fill="#f5f5f5" stroke="transparent" points="166.5,-249 166.5,-271 395.5,-271 395.5,-249 166.5,-249"/>
<polygon fill="none" stroke="black" points="166.5,-249 166.5,-271 395.5,-271 395.5,-249 166.5,-249"/>
<text text-anchor="start" x="171.5" y="-258.2" font-family="Helvetica,sans-Serif" font-weight="bold" font-size="11.00">uploads</text>
<text text-anchor="start" x="360.5" y="-257.2" font-family="Helvetica,sans-Serif" font-size="11.00">[table]</text>
<polygon fill="none" stroke="black" points="166.5,-227 166.5,-249 304.5,-249 304.5,-227 166.5,-227"/>
<image xlink:href="../../images/primaryKeys.png" width="11px" height="12px" preserveAspectRatio="xMinYMin meet" x="171.5" y="-244"/>
<text text-anchor="start" x="186.5" y="-235.2" font-family="Helvetica,sans-Serif" font-size="11.00">id</text>
<polygon fill="none" stroke="black" points="304.5,-227 304.5,-249 395.5,-249 395.5,-227 304.5,-227"/>
<text text-anchor="start" x="307.5" y="-235.2" font-family="Helvetica,sans-Serif" font-size="11.00">int8[19]</text>
<polygon fill="none" stroke="black" points="166.5,-205 166.5,-227 304.5,-227 304.5,-205 166.5,-205"/>
<text text-anchor="start" x="186.5" y="-213.2" font-family="Helvetica,sans-Serif" font-size="11.00">filename</text>
<polygon fill="none" stroke="black" points="304.5,-205 304.5,-227 395.5,-227 395.5,-205 304.5,-205"/>
<text text-anchor="start" x="307.5" y="-213.2" font-family="Helvetica,sans-Serif" font-size="11.00">text[2147483647]</text>
<polygon fill="none" stroke="black" points="166.5,-183 166.5,-205 304.5,-205 304.5,-183 166.5,-183"/>
<text text-anchor="start" x="186.5" y="-191.2" font-family="Helvetica,sans-Serif" font-size="11.00">content_type</text>
<polygon fill="none" stroke="black" points="304.5,-183 304.5,-205 395.5,-205 395.5,-183 304.5,-183"/>
<text text-anchor="start" x="307.5" y="-191.2" font-family="Helvetica,sans-Serif" font-size="11.00">text[2147483647]</text>
<polygon fill="none" stroke="black" points="166.5,-161 166.5,-183 304.5,-183 304.5,-161 166.5,-161"/>
<text text-anchor="start" x="186.5" y="-169.2" font-family="Helvetica,sans-Serif" font-size="11.00">description</text>
<polygon fill="none" stroke="black" points="304.5,-161 304.5,-183 395.5,-183 395.5,-161 304.5,-161"/>
<text text-anchor="start" x="307.5" y="-169.2" font-family="Helvetica,sans-Serif" font-size="11.00">text[2147483647]</text>
<polygon fill="none" stroke="black" points="166.5,-139 166.5,-161 304.5,-161 304.5,-139 166.5,-139"/>
<text text-anchor="start" x="186.5" y="-147.2" font-family="Helvetica,sans-Serif" font-size="11.00">short_description</text>
<polygon fill="none" stroke="black" points="304.5,-139 304.5,-161 395.5,-161 395.5,-139 304.5,-139"/>
<text text-anchor="start" x="307.5" y="-147.2" font-family="Helvetica,sans-Serif" font-size="11.00">text[2147483647]</text>
<polygon fill="none" stroke="black" points="166.5,-117 166.5,-139 304.5,-139 304.5,-117 166.5,-117"/>
<text text-anchor="start" x="186.5" y="-125.2" font-family="Helvetica,sans-Serif" font-size="11.00">downloadable</text>
<polygon fill="none" stroke="black" points="304.5,-117 304.5,-139 395.5,-139 395.5,-117 304.5,-117"/>
<text text-anchor="start" x="307.5" y="-125.2" font-family="Helvetica,sans-Serif" font-size="11.00">bool[1]</text>
<polygon fill="none" stroke="black" points="166.5,-95 166.5,-117 304.5,-117 304.5,-95 166.5,-95"/>
<image xlink:href="../../images/foreignKeys.png" width="11px" height="12px" preserveAspectRatio="xMinYMin meet" x="171.5" y="-112"/>
<text text-anchor="start" x="186.5" y="-103.2" font-family="Helvetica,sans-Serif" font-size="11.00">task_id</text>
<polygon fill="none" stroke="black" points="304.5,-95 304.5,-117 395.5,-117 395.5,-95 304.5,-95"/>
<text text-anchor="start" x="307.5" y="-103.2" font-family="Helvetica,sans-Serif" font-size="11.00">int8[19]</text>
<polygon fill="#ffffff" stroke="transparent" points="166.5,-77 166.5,-95 226.5,-95 226.5,-77 166.5,-77"/>
<polygon fill="none" stroke="black" points="166.5,-77 166.5,-95 226.5,-95 226.5,-77 166.5,-77"/>
<text text-anchor="start" x="169.5" y="-83.2" font-family="Helvetica,sans-Serif" font-size="11.00">&lt; 1</text>
<polygon fill="#ffffff" stroke="transparent" points="226.5,-77 226.5,-95 304.5,-95 304.5,-77 226.5,-77"/>
<polygon fill="none" stroke="black" points="226.5,-77 226.5,-95 304.5,-95 304.5,-77 226.5,-77"/>
<text text-anchor="start" x="267.5" y="-83.2" font-family="Helvetica,sans-Serif" font-size="11.00">0 rows</text>
<polygon fill="#ffffff" stroke="transparent" points="304.5,-77 304.5,-95 395.5,-95 395.5,-77 304.5,-77"/>
<polygon fill="none" stroke="black" points="304.5,-77 304.5,-95 395.5,-95 395.5,-77 304.5,-77"/>
<text text-anchor="start" x="376.5" y="-83.2" font-family="Helvetica,sans-Serif" font-size="11.00">0 &gt;</text>
<polygon fill="none" stroke="black" stroke-width="2" points="165,-76 165,-272 396,-272 396,-76 165,-76"/>
</a>
</g>
</g>
<!-- tasks -->
<g id="node2" class="node">
<title>tasks</title>
<g id="a_node2"><a xlink:href="../../tables/tasks.html" xlink:title="tasks" target="_top">
<polygon fill="#ffffff" stroke="transparent" points="8,-37 8,-139 115,-139 115,-37 8,-37"/>
<polygon fill="#f5f5f5" stroke="transparent" points="8.5,-117 8.5,-139 115.5,-139 115.5,-117 8.5,-117"/>
<polygon fill="none" stroke="black" points="8.5,-117 8.5,-139 115.5,-139 115.5,-117 8.5,-117"/>
<text text-anchor="start" x="13.5" y="-126.2" font-family="Helvetica,sans-Serif" font-weight="bold" font-size="11.00">tasks</text>
<text text-anchor="start" x="80.5" y="-125.2" font-family="Helvetica,sans-Serif" font-size="11.00">[table]</text>
<polygon fill="none" stroke="black" points="8.5,-95 8.5,-117 115.5,-117 115.5,-95 8.5,-95"/>
<image xlink:href="../../images/primaryKeys.png" width="11px" height="12px" preserveAspectRatio="xMinYMin meet" x="13.5" y="-112"/>
<text text-anchor="start" x="28.5" y="-103.2" font-family="Helvetica,sans-Serif" font-size="11.00">id</text>
<polygon fill="#ffffff" stroke="transparent" points="8.5,-73 8.5,-95 115.5,-95 115.5,-73 8.5,-73"/>
<polygon fill="none" stroke="black" points="8.5,-73 8.5,-95 115.5,-95 115.5,-73 8.5,-73"/>
<image xlink:href="../../images/foreignKeys.png" width="11px" height="12px" preserveAspectRatio="xMinYMin meet" x="13.5" y="-90"/>
<text text-anchor="start" x="28.5" y="-81.2" font-family="Helvetica,sans-Serif" font-size="11.00">user_id</text>
<polygon fill="none" stroke="black" points="8.5,-55 8.5,-73 115.5,-73 115.5,-55 8.5,-55"/>
<text text-anchor="start" x="11.5" y="-61.2" font-family="Helvetica,sans-Serif" font-size="11.00">...</text>
<polygon fill="#ffffff" stroke="transparent" points="8.5,-37 8.5,-55 41.5,-55 41.5,-37 8.5,-37"/>
<polygon fill="none" stroke="black" points="8.5,-37 8.5,-55 41.5,-55 41.5,-37 8.5,-37"/>
<text text-anchor="start" x="11.5" y="-43.2" font-family="Helvetica,sans-Serif" font-size="11.00">&lt; 1</text>
<polygon fill="#ffffff" stroke="transparent" points="41.5,-37 41.5,-55 87.5,-55 87.5,-37 41.5,-37"/>
<polygon fill="none" stroke="black" points="41.5,-37 41.5,-55 87.5,-55 87.5,-37 41.5,-37"/>
<text text-anchor="start" x="50.5" y="-43.2" font-family="Helvetica,sans-Serif" font-size="11.00">0 rows</text>
<polygon fill="#ffffff" stroke="transparent" points="87.5,-37 87.5,-55 115.5,-55 115.5,-37 87.5,-37"/>
<polygon fill="none" stroke="black" points="87.5,-37 87.5,-55 115.5,-55 115.5,-37 87.5,-37"/>
<text text-anchor="start" x="96.5" y="-43.2" font-family="Helvetica,sans-Serif" font-size="11.00">2 &gt;</text>
</a>
</g>
</g>
<!-- uploads&#45;&gt;tasks -->
<g id="edge1" class="edge">
<title>uploads:w&#45;&gt;tasks:e</title>
<path fill="none" stroke="black" d="M150.99,-106C139.68,-106 132.49,-106 116.5,-106"/>
<polygon fill="black" stroke="black" points="157.5,-106 165.5,-109.6 161.5,-106 165.5,-106 165.5,-106 165.5,-106 161.5,-106 165.5,-102.4 157.5,-106 157.5,-106"/>
<ellipse fill="none" stroke="black" cx="154.3" cy="-106" rx="3.2" ry="3.2"/>
</g>
</g>
</svg>
