<?xml version="1.0" encoding="UTF-8" standalone="no"?>
<!DOCTYPE svg PUBLIC "-//W3C//DTD SVG 1.1//EN"
 "http://www.w3.org/Graphics/SVG/1.1/DTD/svg11.dtd">
<!-- Generated by graphviz version 2.49.3 (0)
 -->
<!-- Title: users_datasets Pages: 1 -->
<svg width="241pt" height="126pt"
 viewBox="0.00 0.00 241.00 126.00" xmlns="http://www.w3.org/2000/svg" xmlns:xlink="http://www.w3.org/1999/xlink">
<g id="graph0" class="graph" transform="scale(1 1) rotate(0) translate(4 122)">
<title>users_datasets</title>
<polygon fill="#ffffff" stroke="transparent" points="-4,4 -4,-122 237,-122 237,4 -4,4"/>
<!-- users_datasets -->
<g id="node1" class="node">
<title>users_datasets</title>
<g id="a_node1"><a xlink:href="../../tables/users_datasets.html" xlink:title="users_datasets" target="_top">
<polygon fill="#ffffff" stroke="transparent" points="8,-4 8,-114 225,-114 225,-4 8,-4"/>
<polygon fill="#f5f5f5" stroke="transparent" points="10.5,-90 10.5,-112 223.5,-112 223.5,-90 10.5,-90"/>
<polygon fill="none" stroke="black" points="10.5,-90 10.5,-112 223.5,-112 223.5,-90 10.5,-90"/>
<text text-anchor="start" x="15.5" y="-99.2" font-family="Helvetica,sans-Serif" font-weight="bold" font-size="11.00">users_datasets</text>
<text text-anchor="start" x="188.5" y="-98.2" font-family="Helvetica,sans-Serif" font-size="11.00">[table]</text>
<polygon fill="#ffffff" stroke="transparent" points="10.5,-68 10.5,-90 132.5,-90 132.5,-68 10.5,-68"/>
<polygon fill="none" stroke="black" points="10.5,-68 10.5,-90 132.5,-90 132.5,-68 10.5,-68"/>
<text text-anchor="start" x="30.5" y="-76.2" font-family="Helvetica,sans-Serif" font-size="11.00">user_id</text>
<polygon fill="none" stroke="black" points="132.5,-68 132.5,-90 223.5,-90 223.5,-68 132.5,-68"/>
<text text-anchor="start" x="135.5" y="-76.2" font-family="Helvetica,sans-Serif" font-size="11.00">int8[19]</text>
<polygon fill="#ffffff" stroke="transparent" points="10.5,-46 10.5,-68 132.5,-68 132.5,-46 10.5,-46"/>
<polygon fill="none" stroke="black" points="10.5,-46 10.5,-68 132.5,-68 132.5,-46 10.5,-46"/>
<text text-anchor="start" x="30.5" y="-54.2" font-family="Helvetica,sans-Serif" font-size="11.00">dataset_uuid</text>
<polygon fill="none" stroke="black" points="132.5,-46 132.5,-68 223.5,-68 223.5,-46 132.5,-46"/>
<text text-anchor="start" x="135.5" y="-54.2" font-family="Helvetica,sans-Serif" font-size="11.00">text[2147483647]</text>
<polygon fill="none" stroke="black" points="10.5,-24 10.5,-46 132.5,-46 132.5,-24 10.5,-24"/>
<text text-anchor="start" x="30.5" y="-32.2" font-family="Helvetica,sans-Serif" font-size="11.00">name</text>
<polygon fill="none" stroke="black" points="132.5,-24 132.5,-46 223.5,-46 223.5,-24 132.5,-24"/>
<text text-anchor="start" x="135.5" y="-32.2" font-family="Helvetica,sans-Serif" font-size="11.00">text[2147483647]</text>
<polygon fill="#ffffff" stroke="transparent" points="10.5,-6 10.5,-24 62.5,-24 62.5,-6 10.5,-6"/>
<polygon fill="none" stroke="black" points="10.5,-6 10.5,-24 62.5,-24 62.5,-6 10.5,-6"/>
<text text-anchor="start" x="13.5" y="-12.2" font-family="Helvetica,sans-Serif" font-size="11.00">&lt; 0</text>
<polygon fill="#ffffff" stroke="transparent" points="62.5,-6 62.5,-24 132.5,-24 132.5,-6 62.5,-6"/>
<polygon fill="none" stroke="black" points="62.5,-6 62.5,-24 132.5,-24 132.5,-6 62.5,-6"/>
<text text-anchor="start" x="95.5" y="-12.2" font-family="Helvetica,sans-Serif" font-size="11.00">0 rows</text>
<polygon fill="#ffffff" stroke="transparent" points="132.5,-6 132.5,-24 223.5,-24 223.5,-6 132.5,-6"/>
<polygon fill="none" stroke="black" points="132.5,-6 132.5,-24 223.5,-24 223.5,-6 132.5,-6"/>
<text text-anchor="start" x="204.5" y="-12.2" font-family="Helvetica,sans-Serif" font-size="11.00">0 &gt;</text>
<polygon fill="none" stroke="black" stroke-width="2" points="9,-5 9,-113 224,-113 224,-5 9,-5"/>
</a>
</g>
</g>
</g>
</svg>
