<?xml version="1.0" encoding="UTF-8" standalone="no"?>
<!DOCTYPE svg PUBLIC "-//W3C//DTD SVG 1.1//EN"
 "http://www.w3.org/Graphics/SVG/1.1/DTD/svg11.dtd">
<!-- Generated by graphviz version 2.49.3 (0)
 -->
<!-- Title: categories Pages: 1 -->
<svg width="217pt" height="148pt"
 viewBox="0.00 0.00 217.00 148.00" xmlns="http://www.w3.org/2000/svg" xmlns:xlink="http://www.w3.org/1999/xlink">
<g id="graph0" class="graph" transform="scale(1 1) rotate(0) translate(4 144)">
<title>categories</title>
<polygon fill="#ffffff" stroke="transparent" points="-4,4 -4,-144 213,-144 213,4 -4,4"/>
<!-- categories -->
<g id="node1" class="node">
<title>categories</title>
<g id="a_node1"><a xlink:href="../../tables/categories.html" xlink:title="categories" target="_top">
<polygon fill="#ffffff" stroke="transparent" points="8,-4 8,-136 201,-136 201,-4 8,-4"/>
<polygon fill="#f5f5f5" stroke="transparent" points="10.5,-112 10.5,-134 199.5,-134 199.5,-112 10.5,-112"/>
<polygon fill="none" stroke="black" points="10.5,-112 10.5,-134 199.5,-134 199.5,-112 10.5,-112"/>
<text text-anchor="start" x="15.5" y="-121.2" font-family="Helvetica,sans-Serif" font-weight="bold" font-size="11.00">categories</text>
<text text-anchor="start" x="164.5" y="-120.2" font-family="Helvetica,sans-Serif" font-size="11.00">[table]</text>
<polygon fill="none" stroke="black" points="10.5,-90 10.5,-112 102.5,-112 102.5,-90 10.5,-90"/>
<image xlink:href="../../images/primaryKeys.png" width="11px" height="12px" preserveAspectRatio="xMinYMin meet" x="15.5" y="-107"/>
<text text-anchor="start" x="30.5" y="-98.2" font-family="Helvetica,sans-Serif" font-size="11.00">id</text>
<polygon fill="none" stroke="black" points="102.5,-90 102.5,-112 199.5,-112 199.5,-90 102.5,-90"/>
<text text-anchor="start" x="105.5" y="-98.2" font-family="Helvetica,sans-Serif" font-size="11.00">int8[19]</text>
<polygon fill="none" stroke="black" points="10.5,-68 10.5,-90 102.5,-90 102.5,-68 10.5,-68"/>
<text text-anchor="start" x="30.5" y="-76.2" font-family="Helvetica,sans-Serif" font-size="11.00">name</text>
<polygon fill="none" stroke="black" points="102.5,-68 102.5,-90 199.5,-90 199.5,-68 102.5,-68"/>
<text text-anchor="start" x="105.5" y="-76.2" font-family="Helvetica,sans-Serif" font-size="11.00">text[2147483647]</text>
<polygon fill="#ffffff" stroke="transparent" points="10.5,-46 10.5,-68 102.5,-68 102.5,-46 10.5,-46"/>
<polygon fill="none" stroke="black" points="10.5,-46 10.5,-68 102.5,-68 102.5,-46 10.5,-46"/>
<text text-anchor="start" x="30.5" y="-54.2" font-family="Helvetica,sans-Serif" font-size="11.00">path</text>
<polygon fill="none" stroke="black" points="102.5,-46 102.5,-68 199.5,-68 199.5,-46 102.5,-46"/>
<text text-anchor="start" x="105.5" y="-54.2" font-family="Helvetica,sans-Serif" font-size="11.00">_int4[10]</text>
<polygon fill="none" stroke="black" points="10.5,-24 10.5,-46 102.5,-46 102.5,-24 10.5,-24"/>
<text text-anchor="start" x="30.5" y="-32.2" font-family="Helvetica,sans-Serif" font-size="11.00">journals</text>
<polygon fill="none" stroke="black" points="102.5,-24 102.5,-46 199.5,-46 199.5,-24 102.5,-24"/>
<text text-anchor="start" x="105.5" y="-32.2" font-family="Helvetica,sans-Serif" font-size="11.00">_text[2147483647]</text>
<polygon fill="#ffffff" stroke="transparent" points="10.5,-6 10.5,-24 47.5,-24 47.5,-6 10.5,-6"/>
<polygon fill="none" stroke="black" points="10.5,-6 10.5,-24 47.5,-24 47.5,-6 10.5,-6"/>
<text text-anchor="start" x="13.5" y="-12.2" font-family="Helvetica,sans-Serif" font-size="11.00">&lt; 0</text>
<polygon fill="#ffffff" stroke="transparent" points="47.5,-6 47.5,-24 102.5,-24 102.5,-6 47.5,-6"/>
<polygon fill="none" stroke="black" points="47.5,-6 47.5,-24 102.5,-24 102.5,-6 47.5,-6"/>
<text text-anchor="start" x="65.5" y="-12.2" font-family="Helvetica,sans-Serif" font-size="11.00">0 rows</text>
<polygon fill="#ffffff" stroke="transparent" points="102.5,-6 102.5,-24 199.5,-24 199.5,-6 102.5,-6"/>
<polygon fill="none" stroke="black" points="102.5,-6 102.5,-24 199.5,-24 199.5,-6 102.5,-6"/>
<text text-anchor="start" x="180.5" y="-12.2" font-family="Helvetica,sans-Serif" font-size="11.00">0 &gt;</text>
<polygon fill="none" stroke="black" stroke-width="2" points="9,-5 9,-135 200,-135 200,-5 9,-5"/>
</a>
</g>
</g>
</g>
</svg>
